^C:\USERS\EVGEN\SOURCE\REPOS\WORK13\WORK13\WORK13.CPP
C:\USERS\EVGEN\SOURCE\REPOS\WORK13\WORK13\DEBUG\VC142.PDB
C:\USERS\EVGEN\SOURCE\REPOS\WORK13\WORK13\DEBUG\VC142.IDB
C:\USERS\EVGEN\SOURCE\REPOS\WORK13\WORK13\DEBUG\WORK13.OBJ
